{
  "project_info": {
    "project_number": "807208923769",
    "project_id": "accessories-shop-project",
    "storage_bucket": "accessories-shop-project.appspot.com"
  },
  "client": [
    {
      "client_info": {
        "mobilesdk_app_id": "1:807208923769:android:d014958cf0b87840611aa8",
        "android_client_info": {
          "package_name": "kh.edu.rupp.ite.accessories_shop_project"
        }
      },
      "oauth_client": [],
      "api_key": [
        {
          "current_key": "AIzaSyBEBn5dflfOUmI0TZLy5pauVQHB-RIIo70"
        }
      ],
      "services": {
        "appinvite_service": {
          "other_platform_oauth_client": []
        }
      }
    }
  ],
  "configuration_version": "1"
}